{"page":1,"total_results":394369,"total_pages":19719,"results":[{"vote_count":946,"id":297802,"video":false,"vote_average":7,"title":"Aquaman","popularity":642.518,"poster_path":"\/i2dF9UxOeb77CAJrOflj0RpqJRF.jpg","original_language":"en","original_title":"Aquaman","genre_ids":[28,14,878,12],"backdrop_path":"\/5A2bMlLfJrAfX9bqAibOL2gCruF.jpg","adult":false,"overview":"Arthur Curry learns that he is the heir to the underwater kingdom of Atlantis, and must step forward to lead his people and be a hero to the world.","release_date":"2018-12-07"},{"vote_count":228,"id":424783,"video":false,"vote_average":6.4,"title":"Bumblebee","popularity":414.263,"poster_path":"\/fw02ONlDhrYjTSZV8XO6hhU3ds3.jpg","original_language":"en","original_title":"Bumblebee","genre_ids":[28,12,878],"backdrop_path":"\/8bZ7guF94ZyCzi7MLHzXz6E5Lv8.jpg","adult":false,"overview":"On the run in the year 1987, Bumblebee finds refuge in a junkyard in a small Californian beach town. Charlie, on the cusp of turning 18 and trying to find her place in the world, discovers Bumblebee, battle-scarred and broken.  When Charlie revives him, she quickly learns this is no ordinary yellow VW bug.","release_date":"2018-12-15"},{"vote_count":832,"id":405774,"video":false,"vote_average":7.5,"title":"Bird Box","popularity":288.046,"poster_path":"\/rGfGfgL2pEPCfhIvqHXieXFn7gp.jpg","original_language":"en","original_title":"Bird Box","genre_ids":[53,18,878],"backdrop_path":"\/z6m7s4w4Erxnr5k2jc1TZR1AMva.jpg","adult":false,"overview":"A woman and a pair of children are blindfolded and make their way through a post-apocalyptic setting along a river.","release_date":"2018-11-12"},{"vote_count":3562,"id":335983,"video":false,"vote_average":6.5,"title":"Venom","popularity":212.136,"poster_path":"\/2uNW4WbgBXL25BAbXGLnLqX71Sw.jpg","original_language":"en","original_title":"Venom","genre_ids":[878],"backdrop_path":"\/VuukZLgaCrho2Ar8Scl9HtV3yD.jpg","adult":false,"overview":"Investigative journalist Eddie Brock attempts a comeback following a scandal, but accidentally becomes the host of an alien symbiote that gives him a violent super alter-ego: Venom. Soon, he must rely on his newfound powers to protect the world from a shadowy organization looking for a symbiote of their own.","release_date":"2018-10-03"},{"vote_count":399,"id":324857,"video":false,"vote_average":8.5,"title":"Spider-Man: Into the Spider-Verse","popularity":210.587,"poster_path":"\/laMM4lpQSh5z6KIBPwWogkjzBVQ.jpg","original_language":"en","original_title":"Spider-Man: Into the Spider-Verse","genre_ids":[28,12,16,878,35],"backdrop_path":"\/e7CE5vx4KqUuz0peKdHRVZB0Pn8.jpg","adult":false,"overview":"Miles Morales is juggling his life between being a high school student and being Spider-Man. However, when Wilson \"Kingpin\" Fisk uses a super collider, another Spider-Man from another dimension, Peter Parker, accidentally winds up in Miles' dimension. As Peter trains Miles to become a better Spider-Man, they are soon joined by four other Spider-Men from across the \"Spider-Verse\". As all these clashing dimensions start to tear Brooklyn apart, Miles must help the others stop Fisk and return everyone to their own dimensions.","release_date":"2018-12-07"},{"vote_count":311,"id":480530,"video":false,"vote_average":6.5,"title":"Creed II","popularity":195.904,"poster_path":"\/v3QyboWRoA4O9RbcsqH8tJMe8EB.jpg","original_language":"en","original_title":"Creed II","genre_ids":[18,28],"backdrop_path":"\/8yqLPNwNCtpOPc3XkOlkSMnghzw.jpg","adult":false,"overview":"Follows Adonis Creed's life inside and outside of the ring as he deals with new found fame, issues with his family, and his continuing quest to become a champion.","release_date":"2018-11-20"},{"vote_count":12,"id":507562,"video":false,"vote_average":5,"title":"Crayon Shin-chan: Burst Serving! Kung Fu Boys ~Ramen Rebellion~","popularity":193.166,"poster_path":"\/fPc793wngYwFk1pziUNAoCCBmMU.jpg","original_language":"ja","original_title":"クレヨンしんちゃん 爆盛！カンフーボーイズ ～拉麺大乱～","genre_ids":[35,12,16],"backdrop_path":"\/oEu96CmVL9kjneOzjatLeeSZYS2.jpg","adult":false,"overview":"Shin-chan is all set to challenge Kung Fu in the Chinatown of Kasukabe city, known as Aiyā Town.  He and the Kasukabe Defence Force are going to put up a totally no-stunt Kung Fu challenge on the stage.","release_date":"2018-04-13"},{"vote_count":2433,"id":338952,"video":false,"vote_average":7,"title":"Fantastic Beasts: The Crimes of Grindelwald","popularity":181.036,"poster_path":"\/kQKcbJ9uYkTQql2R8L4jTUz7l90.jpg","original_language":"en","original_title":"Fantastic Beasts: The Crimes of Grindelwald","genre_ids":[10751,14,12],"backdrop_path":"\/wDN3FIcQQ1HI7mz1OOKYHSQtaiE.jpg","adult":false,"overview":"Gellert Grindelwald has escaped imprisonment and has begun gathering followers to his cause—elevating wizards above all non-magical beings. The only one capable of putting a stop to him is the wizard he once called his closest friend, Albus Dumbledore. However, Dumbledore will need to seek help from the wizard who had thwarted Grindelwald once before, his former student Newt Scamander, who agrees to help, unaware of the dangers that lie ahead. Lines are drawn as love and loyalty are tested, even among the truest friends and family, in an increasingly divided wizarding world.","release_date":"2018-11-14"},{"vote_count":51,"id":503314,"video":false,"vote_average":6.9,"title":"Dragon Ball Super: Broly","popularity":152.445,"poster_path":"\/518jdIQHCZmYqIcNCaqbZuDRheV.jpg","original_language":"ja","original_title":"Dragon Ball Super: Broly","genre_ids":[28,16,878],"backdrop_path":"\/6OTRuxpwUUGbmCX3MKP25dOmo59.jpg","adult":false,"overview":"Earth is peaceful following the Tournament of Power. Realizing that the universes still hold many more strong people yet to see, Goku spends all his days training to reach even greater heights. Then one day, Goku and Vegeta are faced by a Saiyan called 'Broly' who they've never seen before. The Saiyans were supposed to have been almost completely wiped out in the destruction of Planet Vegeta, so what's this one doing on Earth? This encounter between the three Saiyans who have followed completely different destinies turns into a stupendous battle, with even Frieza (back from Hell) getting caught up in the mix.","release_date":"2018-12-14"},{"vote_count":178,"id":400650,"video":false,"vote_average":7.3,"title":"Mary Poppins Returns","popularity":145.355,"poster_path":"\/uTVGku4LibMGyKgQvjBtv3OYfAX.jpg","original_language":"en","original_title":"Mary Poppins Returns","genre_ids":[14,10402,10751],"backdrop_path":"\/3pvIMjJps4uJr5NOmolY0MXvTYD.jpg","adult":false,"overview":"In Depression-era London, a now-grown Jane and Michael Banks, along with Michael's three children, are visited by the enigmatic Mary Poppins following a personal loss. Through her unique magical skills, and with the aid of her friend Jack, she helps the family rediscover the joy and wonder missing in their lives.","release_date":"2018-12-19"},{"vote_count":1287,"id":346910,"video":false,"vote_average":5.2,"title":"The Predator","popularity":141.799,"poster_path":"\/wMq9kQXTeQCHUZOG4fAe5cAxyUA.jpg","original_language":"en","original_title":"The Predator","genre_ids":[878,28,53,12],"backdrop_path":"\/f4E0ocYeToEuXvczZv6QArrMDJ.jpg","adult":false,"overview":"When a kid accidentally triggers the universe's most lethal hunters' return to Earth, only a ragtag crew of ex-soldiers and a disgruntled female scientist can prevent the end of the human race.","release_date":"2018-09-05"},{"vote_count":10135,"id":299536,"video":false,"vote_average":8.3,"title":"Avengers: Infinity War","popularity":133.655,"poster_path":"\/7WsyChQLEftFiDOVTGkv3hFpyyt.jpg","original_language":"en","original_title":"Avengers: Infinity War","genre_ids":[12,28,14],"backdrop_path":"\/bOGkgRGdhrBYJSLpXaxhXVstddV.jpg","adult":false,"overview":"As the Avengers and their allies have continued to protect the world from threats too large for any one hero to handle, a new danger has emerged from the cosmic shadows: Thanos. A despot of intergalactic infamy, his goal is to collect all six Infinity Stones, artifacts of unimaginable power, and use them to inflict his twisted will on all of reality. Everything the Avengers have fought for has led up to this moment - the fate of Earth and existence itself has never been more uncertain.","release_date":"2018-04-25"},{"vote_count":483,"id":463272,"video":false,"vote_average":6.2,"title":"Johnny English Strikes Again","popularity":125.771,"poster_path":"\/ryACHOzmRJiJEKjatbokudfkO74.jpg","original_language":"en","original_title":"Johnny English Strikes Again","genre_ids":[12,10751,28,35],"backdrop_path":"\/b7Q0uX4Tcd6lXWItJEMxYk9XBbc.jpg","adult":false,"overview":"Disaster strikes when a criminal mastermind reveals the identities of all active undercover agents in Britain. The secret service can now rely on only one man - Johnny English. Currently teaching at a minor prep school, Johnny springs back into action to find the mysterious hacker. For this mission to succeed, he’ll need all of his skills - what few he has - as the man with yesterday’s analogue methods faces off against tomorrow’s digital technology.","release_date":"2018-09-13"},{"vote_count":337,"id":428078,"video":false,"vote_average":6.2,"title":"Mortal Engines","popularity":125.677,"poster_path":"\/uXJVpPXxZO4L8Rz3IG1Y8XvZJcg.jpg","original_language":"en","original_title":"Mortal Engines","genre_ids":[878,28,12],"backdrop_path":"\/rxYG6Sj95as9rv9wKIHUx6ATWd3.jpg","adult":false,"overview":"Set in a world many thousands of years in the future. Earth’s cities now roam the globe on huge wheels, devouring each other in a struggle for ever diminishing resources. On one of these massive Traction Cities, Tom Natsworthy has an unexpected encounter with a mysterious young woman from the Outlands who will change the course of his life forever.","release_date":"2018-12-06"},{"vote_count":2854,"id":424694,"video":false,"vote_average":8.2,"title":"Bohemian Rhapsody","popularity":112.952,"poster_path":"\/lHu1wtNaczFPGFDTrjCSzeLPTKN.jpg","original_language":"en","original_title":"Bohemian Rhapsody","genre_ids":[18,10402],"backdrop_path":"\/pbXgLEYh8rlG2Km5IGZPnhcnuSz.jpg","adult":false,"overview":"Singer Freddie Mercury, guitarist Brian May, drummer Roger Taylor and bass guitarist John Deacon take the music world by storm when they form the rock 'n' roll band Queen in 1970. Hit songs become instant classics. When Mercury's increasingly wild lifestyle starts to spiral out of control, Queen soon faces its greatest challenge yet – finding a way to keep the band together amid the success and excess.","release_date":"2018-10-24"},{"vote_count":389,"id":454293,"video":false,"vote_average":6.1,"title":"Night School","popularity":111.174,"poster_path":"\/kwKg9Nt7WYMURxzhuvQa7erxlyB.jpg","original_language":"en","original_title":"Night School","genre_ids":[35],"backdrop_path":"\/jJBimY3DXIaIaL4NeGHfR0U0rSh.jpg","adult":false,"overview":"Teddy Walker is a successful salesman whose life takes an unexpected turn when he accidentally blows up his place of employment. Forced to attend night school to get his GED, Teddy soon finds himself dealing with a group of misfit students, his former high school nemesis and a feisty teacher who doesn't think he's too bright.","release_date":"2018-09-27"},{"vote_count":443,"id":446021,"video":false,"vote_average":6.7,"title":"Bad Times at the El Royale","popularity":110.896,"poster_path":"\/qExufIc4Rw0e4xdVZlhMdmEDGES.jpg","original_language":"en","original_title":"Bad Times at the El Royale","genre_ids":[53,80,9648,18],"backdrop_path":"\/gb3TVVZNNxVGNfS1NxGaiWZfwnW.jpg","adult":false,"overview":"Lake Tahoe, 1969. Seven strangers, each one with a secret to bury, meet at El Royale, a decadent motel with a dark past. In the course of a fateful night, everyone will have one last shot at redemption.","release_date":"2018-10-04"},{"vote_count":314,"id":375588,"video":false,"vote_average":6,"title":"Robin Hood","popularity":97.26,"poster_path":"\/AiRfixFcfTkNbn2A73qVJPlpkUo.jpg","original_language":"en","original_title":"Robin Hood","genre_ids":[12,28],"backdrop_path":"\/AuA50D7T7S7OEVcGo0ZKaMhERn0.jpg","adult":false,"overview":"A war-hardened Crusader and his Moorish commander mount an audacious revolt against the corrupt English crown.","release_date":"2018-11-20"},{"vote_count":1173,"id":424139,"video":false,"vote_average":6.5,"title":"Halloween","popularity":97.005,"poster_path":"\/bXs0zkv2iGVViZEy78teg2ycDBm.jpg","original_language":"en","original_title":"Halloween","genre_ids":[53,27],"backdrop_path":"\/crn09DUYgmFUPbOroxt1tQSoi0r.jpg","adult":false,"overview":"Laurie Strode comes to her final confrontation with Michael Myers, the masked figure who has haunted her since she narrowly escaped his killing spree on Halloween night four decades ago.","release_date":"2018-10-18"},{"vote_count":543,"id":407436,"video":false,"vote_average":6.7,"title":"Mowgli: Legend of the Jungle","popularity":91.646,"poster_path":"\/clRnzMsFoMIdC7I5JsG6dnnHH8l.jpg","original_language":"en","original_title":"Mowgli: Legend of the Jungle","genre_ids":[12,18],"backdrop_path":"\/2CECgwgaqfrkBigDe7ZadUhE2td.jpg","adult":false,"overview":"A human child raised by wolves, must face off against a menacing tiger named Shere Khan, as well as his own origins.","release_date":"2018-11-25"}]}
